/******* Install Config Ubuntu Production **********/

* Secure shared memory (Anti DDOS)
  + sudo nano /etc/fstab
  + Add: tmpfs     /run/shm     tmpfs     defaults,noexec,nosuid     0     0
  + Reboot



